Programming with Data
…
---

# Selecting columns: dplyr

```r
M %>% select(Sex, WnMass, DamID)
```

```
## # A tibble: 2,457 × 3
##      Sex WnMass DamID
##    <dbl>  <dbl> <chr>
## 1      0  15.26  229x
## 2      1  12.47  229x
## 3      1  17.37  229x
## 4      1  16.63  229x
## 5      1  16.76  229x
## 6      0  12.53  205x
## 7      0  10.89  205x
## 8      1  13.60  205x
## 9      1  14.17  205x
## 10     1  13.42  205x
## # ... with 2,447 more rows
```
…
---

# Aggregating: dplyr

Start by grouping data by some categorical variable:

```r
M %>% group_by(Sex)
```

```
## Source: local data frame [2,457 x 25]
## Groups: Sex [3]
## 
##    WnBatch WnOrder MouseID   Sex WnMass DamID DamMass SireID SireMass
##      <dbl>   <dbl>   <dbl> <dbl>  <dbl> <chr>   <dbl>  <chr>    <dbl>
## 1        1       1       1     0  15.26  229x   30.69   231x       NA
## 2        1       2       2     1  12.47  229x   30.69   231x       NA
## 3        1       3       3     1  17.37  229x   30.69   231x       NA
## 4        1       4       4     1  16.63  229x   30.69   231x       NA
## 5        1       5       5     1  16.76  229x   30.69   231x       NA
## 6        1       6       6     0  12.53  205x   36.85   207x       NA
## 7        1       7       7     0  10.89  205x   36.85   207x       NA
## 8        1       8       8     1  13.60  205x   36.85   207x       NA
## 9        1       9       9     1  14.17  205x   36.85   207x       NA
## 10       1      10      10     1  13.42  205x   36.85   207x       NA
## # ... with 2,447 more rows, and 16 more variables: Lineage <dbl>,
## #   YearMo <chr>, WnYear <dbl>, WnMonth <dbl>, WnDay <dbl>, BYear <dbl>,
## #   BMonth <dbl>, BDay <dbl>, SepYear <dbl>, SepMonth <dbl>, SepDay <dbl>,
## #   Breeder <dbl>, Fate <dbl>, Observ <dbl>, log10WnMass <dbl>,
## #   log10DamMass <dbl>
```
…
