Data Cleaning
…
Aggregating: dplyr

Start by grouping data by some categorical variable:

M %>% group_by(Sex)

## # A tibble: 2,457 x 22
## # Groups:   Sex [3]
##    WnBatch WnOrder MouseID   Sex WnMass DamID DamMass SireID SireMass
##      <dbl>   <dbl>   <dbl> <dbl>  <dbl> <chr>   <dbl> <chr>     <dbl>
##  1       1       1       1     0   15.3 229x     30.7 231x         NA
##  2       1       2       2     1   12.5 229x     30.7 231x         NA
##  3       1       3       3     1   17.4 229x     30.7 231x         NA
##  4       1       4       4     1   16.6 229x     30.7 231x         NA
##  5       1       5       5     1   16.8 229x     30.7 231x         NA
##  6       1       6       6     0   12.5 205x     36.8 207x         NA
##  7       1       7       7     0   10.9 205x     36.8 207x         NA
##  8       1       8       8     1   13.6 205x     36.8 207x         NA
##  9       1       9       9     1   14.2 205x     36.8 207x         NA
## 10       1      10      10     1   13.4 205x     36.8 207x         NA
## #  with 2,447 more rows, and 13 more variables: Lineage <lgl>,
## #   WnYear <dbl>, WnMonth <dbl>, WnDay <dbl>, BYear <dbl>, BMonth <dbl>,
## #   BDay <dbl>, SepYear <dbl>, SepMonth <dbl>, SepDay <dbl>,
## #   Breeder <chr>, Fate <chr>, Observ <chr>
…
Finding suspect observations

M_no_NAs %>% 
  select(MouseID, DamID, WnMass) %>% 
  arrange(WnMass)

## # A tibble: 2,429 x 3
##    MouseID DamID WnMass
##      <dbl> <chr>  <dbl>
##  1      -9 427    0.164
##  2     207 14     1.41 
##  3      -9 1932   3.77 
##  4      -9 1932   4.17 
##  5     407 351    4.76 
##  6      -9 519    4.88 
##  7      -9 1932   4.91 
##  8      -9 205x   5.69 
##  9    1253 1122   6.01 
## 10      -9 540    6.23 
## #  with 2,419 more rows

Finding suspect observations

M_no_NAs %>% 
  select(MouseID, DamID, WnMass) %>% 
  arrange(desc(WnMass))

## # A tibble: 2,429 x 3
##    MouseID DamID WnMass
##      <dbl> <chr>  <dbl>
##  1     327 262    140. 
##  2      -9 212    105. 
##  3     342 236     24.7
##  4     343 236     24.0
##  5     757 601     23.4
##  6     756 601     23.2
##  7      -9 234     22.3
##  8     337 234     21.6
##  9      -9 234     21.6
## 10      -9 234     21.4
## #  with 2,419 more rows
…
M_no_NAs$WnMass[M_no_NAs$MouseID == 327] <- 13.96

M_no_NAs$WnMass[M_no_NAs$MouseID == -9 &
                  M_no_NAs$WnMass == 0.1636] <- 16.36

M_no_NAs$WnMass[M_no_NAs$MouseID == -9 &
                  M_no_NAs$WnMass == 105.20] <- 15.20

Finding suspect observations

M_no_NAs %>% 
  select(MouseID, DamID, WnMass) %>% 
  arrange(WnMass)

## # A tibble: 2,429 x 3
##    MouseID DamID WnMass
##      <dbl> <chr>  <dbl>
##  1      -9 1932    3.77
##  2      -9 1932    4.17
##  3     407 351     4.76
##  4      -9 519     4.88
##  5      -9 1932    4.91
##  6      -9 205x    5.69
##  7    1253 1122    6.01
##  8      -9 540     6.23
##  9      -9 234x    6.3 
## 10      -9 244     6.36
## #  with 2,419 more rows

Finding suspect observations

M_no_NAs %>% 
  select(MouseID, DamID, WnMass) %>% 
  arrange(desc(WnMass))

## # A tibble: 2,429 x 3
##    MouseID DamID WnMass
##      <dbl> <chr>  <dbl>
##  1     342 236     24.7
##  2     343 236     24.0
##  3     757 601     23.4
##  4     756 601     23.2
##  5      -9 234     22.3
##  6     337 234     21.6
##  7      -9 234     21.6
##  8      -9 234     21.4
##  9     341 236     21.4
## 10      -9 1327    21.2
## #  with 2,419 more rows
…
