Data Exploration
…
Finding suspect observations

bats %>% 
  select(bat_ID, age, mass, moonlight) %>% 
  arrange(moonlight)

## # A tibble: 168 x 4
##    bat_ID age    mass moonlight
##     <dbl> <chr> <dbl>     <dbl>
##  1    107 J       9.3         0
##  2    108 J       7.8         0
##  3    109 J      11.5         0
##  4    110 J      15.5         0
##  5    111 A      15.5         0
##  6    112 J       9.8         0
##  7    113 J      10           0
##  8    114 J       7.3         2
##  9    115 J      10           2
## 10    116 J       9.3         2
## # ... with 158 more rows

Finding suspect observations

bats %>% 
  select(bat_ID, age, mass, moonlight) %>% 
  arrange(desc(moonlight))

## # A tibble: 168 x 4
##    bat_ID age    mass moonlight
##     <dbl> <chr> <dbl>     <dbl>
##  1     40 A      15        1000
##  2     41 J       9        1000
##  3     42 J      11        1000
##  4      1 A       5         990
##  5    155 J      12.5       990
##  6    148 J      11.3        99
##  7    149 A       7.3        99
##  8    150 J       8.8        99
##  9    151 J       5.8        99
## 10    152 J      13          99
## # ... with 158 more rows
…
bats$moonlight[bats$moonlight == 1000] <- 100

bats$moonlight[bats$moonlight == 990 &
                  bats$bat_ID == 155] <- 99

bats$moonlight[bats$moonlight == 990 &
                  bats$bat_ID == 1] <- 0

Doublecheck your fixes

bats %>% 
  select(bat_ID, age, mass, moonlight) %>% 
  arrange(moonlight)

## # A tibble: 168 x 4
##    bat_ID age    mass moonlight
##     <dbl> <chr> <dbl>     <dbl>
##  1      1 A       5           0
##  2    107 J       9.3         0
##  3    108 J       7.8         0
##  4    109 J      11.5         0
##  5    110 J      15.5         0
##  6    111 A      15.5         0
##  7    112 J       9.8         0
##  8    113 J      10           0
##  9    114 J       7.3         2
## 10    115 J      10           2
## # ... with 158 more rows

Doublecheck your fixes

bats %>% 
  select(bat_ID, age, mass, moonlight) %>% 
  arrange(desc(moonlight)) %>%
  print(n = 11)

## # A tibble: 168 x 4
##    bat_ID age    mass moonlight
##     <dbl> <chr> <dbl>     <dbl>
##  1     40 A      15         100
##  2     41 J       9         100
##  3     42 J      11         100
##  4    148 J      11.3        99
##  5    149 A       7.3        99
##  6    150 J       8.8        99
##  7    151 J       5.8        99
##  8    152 J      13          99
##  9    153 J       9.3        99
## 10    154 J      10          99
## 11    155 J      12.5        99
## # ... with 157 more rows
…
