Applications of Inference Frameworks
…
grid_mu_sigma <- mesh(mus, sigmas) # Generate grid

# To hold the output
grid_approx <- tibble(
  mu = as.numeric(grid_mu_sigma$x),
  sigma = as.numeric(grid_mu_sigma$y),
  log_lik = rep(NA, length = n ^ 2)
)

grid_approx

## # A tibble: 10,000 x 3
##       mu sigma log_lik
##    <dbl> <dbl> <lgl>  
##  1 0.1     0.1 NA     
##  2 0.149   0.1 NA     
##  3 0.199   0.1 NA     
##  4 0.248   0.1 NA     
##  5 0.298   0.1 NA     
##  6 0.347   0.1 NA     
##  7 0.397   0.1 NA     
##  8 0.446   0.1 NA     
##  9 0.496   0.1 NA     
## 10 0.545   0.1 NA     
## #  with 9,990 more rows
…
