In Class Discussion
…
theta <- seq(0.001, 0.999, length = 200)

Calculate the probability for 91 female mice from 191 total mice for each value of \(\theta\):

pr <- dbinom(91, 191, prob = theta)

Convert to log-likelihoods:

log_lik <- log(pr)
log_liks <- tibble(theta, log_lik)

log_liks

## # A tibble: 200 x 2
##      theta log_lik
##      <dbl>   <dbl>
##  1 0.001     -499.
##  2 0.00602   -337.
##  3 0.0110    -282.
##  4 0.0160    -248.
##  5 0.0211    -224.
##  6 0.0261    -205.
##  7 0.0311    -190.
##  8 0.0361    -177.
##  9 0.0411    -165.
## 10 0.0461    -155.
## #  with 190 more rows
…
pr <- dbinom(1202, 1202 + 1227, prob = theta)

Convert to log-likelihoods:

log_lik <- log(pr)
log_liks <- tibble(theta, log_lik)

log_liks

## # A tibble: 200 x 2
##      theta log_lik
##      <dbl>   <dbl>
##  1 0.001      -Inf
##  2 0.00602    -Inf
##  3 0.0110     -Inf
##  4 0.0160     -Inf
##  5 0.0211     -Inf
##  6 0.0261     -Inf
##  7 0.0311     -Inf
##  8 0.0361     -Inf
##  9 0.0411     -Inf
## 10 0.0461     -Inf
## #  with 190 more rows
…
grid_mu_sigma <- plot3D::mesh(mus, sigmas) # mesh() generates grid

# To hold the output
grid_approx <- tibble(
  mu = as.numeric(grid_mu_sigma$x),
  sigma = as.numeric(grid_mu_sigma$y),
  log_lik = rep(NA, length = n ^ 2)
)

grid_approx

## # A tibble: 10,000 x 3
##       mu sigma log_lik
##    <dbl> <dbl> <lgl>  
##  1  5      0.1 NA     
##  2  5.15   0.1 NA     
##  3  5.30   0.1 NA     
##  4  5.45   0.1 NA     
##  5  5.61   0.1 NA     
##  6  5.76   0.1 NA     
##  7  5.91   0.1 NA     
##  8  6.06   0.1 NA     
##  9  6.21   0.1 NA     
## 10  6.36   0.1 NA     
## #  with 9,990 more rows
…
