Applications of Inference Frameworks
…
grid_approx <- data_frame(
  mu = as.numeric(grid_mu_sigma$x),
  sigma = as.numeric(grid_mu_sigma$y),
  log_lik = rep(NA, length = n ^ 2)
)
```

---

```r
grid_approx
```

```
## # A tibble: 10,000 × 3
##           mu sigma log_lik
##        <dbl> <dbl>   <lgl>
## 1  0.1000000   0.1      NA
## 2  0.1494949   0.1      NA
## 3  0.1989899   0.1      NA
## 4  0.2484848   0.1      NA
## 5  0.2979798   0.1      NA
## 6  0.3474747   0.1      NA
## 7  0.3969697   0.1      NA
## 8  0.4464646   0.1      NA
## 9  0.4959596   0.1      NA
## 10 0.5454545   0.1      NA
## # ... with 9,990 more rows
```
…
