From Probability to Likelihood
…
theta <- seq(0.001, 0.999, length = 200)

Calculate the probability for 3 heads for each value of \(\theta\):

pr <- dbinom(3, 6, prob = theta)

Convert to log-likelihoods:

log_lik <- log(pr)
log_liks <- tibble(theta, log_lik)

log_liks

## # A tibble: 200 x 2
##      theta log_lik
##      <dbl>   <dbl>
##  1 0.001    -17.7 
##  2 0.00602  -12.4 
##  3 0.0110   -10.6 
##  4 0.0160    -9.45
##  5 0.0211    -8.65
##  6 0.0261    -8.02
##  7 0.0311    -7.51
##  8 0.0361    -7.08
##  9 0.0411    -6.70
## 10 0.0461    -6.37
## #  with 190 more rows
…
