Applications of Inference Frameworks
…
For combinations of \(\mu\) and \(\sigma\), calculate the model likelihood. Pick the largest log-likelihood as the maximum likelihood estimates.

Set up the grid:

n <- 100 # How fine is the grid
mu <- seq(0.1, 5, length = n) # Vector of mu
sigma <- seq(0.1, 2, length = n) # Vector of sigma

grid_approx <- crossing(mu, sigma) %>% 
  mutate(log_lik = NA)

grid_approx

## # A tibble: 10,000 x 3
##       mu sigma log_lik
##    <dbl> <dbl> <lgl>  
##  1   0.1 0.1   NA     
##  2   0.1 0.119 NA     
##  3   0.1 0.138 NA     
##  4   0.1 0.158 NA     
##  5   0.1 0.177 NA     
##  6   0.1 0.196 NA     
##  7   0.1 0.215 NA     
##  8   0.1 0.234 NA     
##  9   0.1 0.254 NA     
## 10   0.1 0.273 NA     
## #  with 9,990 more rows
…
