From Probability to Likelihood
…
theta <- seq(0.001, 0.999, length = 200)

Calculate the probability for 2 heads for each value of \(\theta\):

pr <- dbinom(2, 6, prob = theta)

Convert to log-likelihoods:

log_lik <- log(pr)
log_liks <- tibble(theta, log_lik)

log_liks

## # A tibble: 200 x 2
##      theta log_lik
##      <dbl>   <dbl>
##  1 0.001    -11.1 
##  2 0.00602   -7.54
##  3 0.0110    -6.35
##  4 0.0160    -5.62
##  5 0.0211    -5.10
##  6 0.0261    -4.69
##  7 0.0311    -4.36
##  8 0.0361    -4.08
##  9 0.0411    -3.84
## 10 0.0461    -3.63
## #  with 190 more rows
…
