Progress Check 1
…
or

penguins_long <- penguins %>%
  select(species, sex, body_mass_g, bill_length_mm, bill_depth_mm) %>% 
  pivot_longer(cols = -c(species, sex, body_mass_g),
               names_to = "bill_measure",
               values_to = "length") %>% 
  drop_na()

Long data

penguins_long

## # A tibble: 666 x 5
##    species sex    body_mass_g bill_measure   length
##    <fct>   <fct>        <int> <chr>           <dbl>
##  1 Adelie  male          3750 bill_length_mm   39.1
##  2 Adelie  male          3750 bill_depth_mm    18.7
##  3 Adelie  female        3800 bill_length_mm   39.5
##  4 Adelie  female        3800 bill_depth_mm    17.4
##  5 Adelie  female        3250 bill_length_mm   40.3
##  6 Adelie  female        3250 bill_depth_mm    18  
##  7 Adelie  female        3450 bill_length_mm   36.7
##  8 Adelie  female        3450 bill_depth_mm    19.3
##  9 Adelie  male          3650 bill_length_mm   39.3
## 10 Adelie  male          3650 bill_depth_mm    20.6
## #  with 656 more rows
…
pivot_wider()

Be careful:

penguins_long %>% 
  pivot_wider(id_cols = c(species, sex, body_mass_g),
              names_from = bill_measure, values_from = length)

## Warning: Values are not uniquely identified; output will contain list-cols.
## * Use `values_fn = list` to suppress this warning.
## * Use `values_fn = length` to identify where the duplicates arise
## * Use `values_fn = {summary_fun}` to summarise duplicates

## # A tibble: 164 x 5
##    species sex    body_mass_g length    depth    
##    <fct>   <fct>        <int> <list>    <list>   
##  1 Adelie  male          3750 <dbl [3]> <dbl [3]>
##  2 Adelie  female        3800 <dbl [4]> <dbl [4]>
##  3 Adelie  female        3250 <dbl [2]> <dbl [2]>
##  4 Adelie  female        3450 <dbl [6]> <dbl [6]>
##  5 Adelie  male          3650 <dbl [2]> <dbl [2]>
##  6 Adelie  female        3625 <dbl [1]> <dbl [1]>
##  7 Adelie  male          4675 <dbl [1]> <dbl [1]>
##  8 Adelie  female        3200 <dbl [4]> <dbl [4]>
##  9 Adelie  male          3800 <dbl [4]> <dbl [4]>
## 10 Adelie  male          4400 <dbl [3]> <dbl [3]>
## #  with 154 more rows

What happened?

species, sex, and body_mass_g dont uniquely identify new rows

penguins_long %>% 
  group_by(species, sex, body_mass_g) %>% 
  tally()

## # A tibble: 164 x 4
## # Groups:   species, sex [6]
##    species sex    body_mass_g     n
##    <fct>   <fct>        <int> <int>
##  1 Adelie  female        2850     4
##  2 Adelie  female        2900     6
##  3 Adelie  female        2925     2
##  4 Adelie  female        3000     4
##  5 Adelie  female        3050     8
##  6 Adelie  female        3075     2
##  7 Adelie  female        3100     2
##  8 Adelie  female        3150     8
##  9 Adelie  female        3175     4
## 10 Adelie  female        3200     8
## #  with 154 more rows
…
island data into penguin data

Keys

intersect(colnames(penguins), colnames(island_data))

## [1] "island"

left_join()

left_join(penguins, island_data)

## Joining, by = "island"

## # A tibble: 344 x 10
##    species island bill_length_mm bill_depth_mm flipper_length_ body_mass_g
##    <fct>   <chr>           <dbl>         <dbl>            <int>       <int>
##  1 Adelie  Torge           39.1          18.7              181        3750
##  2 Adelie  Torge           39.5          17.4              186        3800
##  3 Adelie  Torge           40.3          18                195        3250
##  4 Adelie  Torge           NA            NA                 NA          NA
##  5 Adelie  Torge           36.7          19.3              193        3450
##  6 Adelie  Torge           39.3          20.6              190        3650
##  7 Adelie  Torge           38.9          17.8              181        3625
##  8 Adelie  Torge           39.2          19.6              195        4675
##  9 Adelie  Torge           34.1          18.1              193        3475
## 10 Adelie  Torge           42            20.2              190        4250
## #  with 334 more rows, and 4 more variables: sex <fct>, year <int>,
## #   latitude <dbl>, longitude <dbl>
…
