Problem Set 05
…
These data have several layers of nesting. Each seedling has a unique id and comes from one of 16 populations. Within each population, multiple plants come from each block within a family.

Group these data by population, family, and block, and then tally the number of observations in each subgroup.

# FIXME
M %>% 
  group_by(population, family, block) %>% 
  tally()

## # A tibble: 1,807 x 4
## # Groups:   population, family [472]
##    population family block     n
##    <chr>      <fct>  <fct> <int>
##  1 BAY        801    1         4
##  2 BAY        801    2         5
##  3 BAY        801    3         4
##  4 BAY        801    4         4
##  5 BAY        802    1         5
##  6 BAY        802    2         5
##  7 BAY        802    3         5
##  8 BAY        802    4         5
##  9 BAY        803    1         4
## 10 BAY        803    2         4
## #  with 1,797 more rows
…
If you print out the first ~20 rows, you can see that there are a lot of NAs. Some seedlings have 3 measurements, some 2, some 1, and some none.

Next pivot the data to long format on the three height columns (you can use starts_with() as above). You should then drop rows with NAs in the resulting value column.

# FIXME
M_long <- M_sub %>% 
  pivot_longer(cols = starts_with("ht")) %>% 
  drop_na(value)

M_long

## # A tibble: 6,286 x 4
##    population id     name   value
##    <chr>      <chr>  <chr>  <dbl>
##  1 BAY        101_6  ht99mm   125
##  2 BAY        101_6  ht98mm   120
##  3 BAY        101_6  ht97mm    90
##  4 BAY        101_9  ht99mm   100
##  5 BAY        101_12 ht98mm   170
##  6 BAY        101_12 ht97mm   100
##  7 BAY        101_13 ht99mm   110
##  8 BAY        101_13 ht98mm    90
##  9 BAY        101_14 ht99mm   115
## 10 BAY        101_15 ht99mm   140
## #  with 6,276 more rows
…
