Problem Set 02
…
All females of both species

Body mass and sex for Nephila clavipes

Rows 1-50 (either using base R or the slice() function from tidyverse)

Mass of the largest female (by mass) in each species

Male Pardosa ramulosa with body lengths less than 4 or greater than 6

#FIXME
# 1
M[M$Species == "Pardosa_ramulosa", ]

## # A tibble: 100 x 5
##       ID Species          Sex   BodyLength BodyMass
##    <dbl> <chr>            <chr>      <dbl>    <dbl>
##  1     1 Pardosa_ramulosa M           3.67    0.053
##  2     2 Pardosa_ramulosa M           4.96    0.168
##  3     3 Pardosa_ramulosa M           5.21    0.223
##  4     4 Pardosa_ramulosa M           5.18    0.106
##  5     5 Pardosa_ramulosa M           4.79    0.146
##  6     6 Pardosa_ramulosa M           6.04    0.22 
##  7     7 Pardosa_ramulosa M           3.97    0.098
##  8     8 Pardosa_ramulosa M           2.75    0.024
##  9     9 Pardosa_ramulosa M           4.22    0.071
## 10    10 Pardosa_ramulosa M           3.41    0.043
## #  with 90 more rows

M %>% filter(Species == "Pardosa_ramulosa")

## # A tibble: 100 x 5
##       ID Species          Sex   BodyLength BodyMass
##    <dbl> <chr>            <chr>      <dbl>    <dbl>
##  1     1 Pardosa_ramulosa M           3.67    0.053
##  2     2 Pardosa_ramulosa M           4.96    0.168
##  3     3 Pardosa_ramulosa M           5.21    0.223
##  4     4 Pardosa_ramulosa M           5.18    0.106
##  5     5 Pardosa_ramulosa M           4.79    0.146
##  6     6 Pardosa_ramulosa M           6.04    0.22 
##  7     7 Pardosa_ramulosa M           3.97    0.098
##  8     8 Pardosa_ramulosa M           2.75    0.024
##  9     9 Pardosa_ramulosa M           4.22    0.071
## 10    10 Pardosa_ramulosa M           3.41    0.043
## #  with 90 more rows

# 2
M[M$Sex == "F", ]

## # A tibble: 100 x 5
##       ID Species          Sex   BodyLength BodyMass
##    <dbl> <chr>            <chr>      <dbl>    <dbl>
##  1    51 Pardosa_ramulosa F           6.44    0.319
##  2    52 Pardosa_ramulosa F           5.92    0.464
##  3    53 Pardosa_ramulosa F           4.59    0.067
##  4    54 Pardosa_ramulosa F           6.91    0.251
##  5    55 Pardosa_ramulosa F           6.12    0.112
##  6    56 Pardosa_ramulosa F           7.91    0.254
##  7    57 Pardosa_ramulosa F           6.04    0.251
##  8    58 Pardosa_ramulosa F           6.80    0.201
##  9    59 Pardosa_ramulosa F           5.14    0.16 
## 10    60 Pardosa_ramulosa F           4.94    0.096
## #  with 90 more rows

M %>% filter(Sex == "F")

## # A tibble: 100 x 5
##       ID Species          Sex   BodyLength BodyMass
##    <dbl> <chr>            <chr>      <dbl>    <dbl>
##  1    51 Pardosa_ramulosa F           6.44    0.319
##  2    52 Pardosa_ramulosa F           5.92    0.464
##  3    53 Pardosa_ramulosa F           4.59    0.067
##  4    54 Pardosa_ramulosa F           6.91    0.251
##  5    55 Pardosa_ramulosa F           6.12    0.112
##  6    56 Pardosa_ramulosa F           7.91    0.254
##  7    57 Pardosa_ramulosa F           6.04    0.251
##  8    58 Pardosa_ramulosa F           6.80    0.201
##  9    59 Pardosa_ramulosa F           5.14    0.16 
## 10    60 Pardosa_ramulosa F           4.94    0.096
## #  with 90 more rows

# 3
M[M$Species == "Nephila_clavipes", c("BodyMass", "Sex")]

## # A tibble: 100 x 2
##    BodyMass Sex  
##       <dbl> <chr>
##  1     6.36 M    
##  2    12.1  M    
##  3     6.38 M    
##  4     3.91 M    
##  5     2    M    
##  6    12.8  M    
##  7     2.43 M    
##  8     7.68 M    
##  9    11.6  M    
## 10     2.93 M    
## #  with 90 more rows

M %>% filter(Species == "Nephila_clavipes") %>% 
  select(BodyMass, Sex)

## # A tibble: 100 x 2
##    BodyMass Sex  
##       <dbl> <chr>
##  1     6.36 M    
##  2    12.1  M    
##  3     6.38 M    
##  4     3.91 M    
##  5     2    M    
##  6    12.8  M    
##  7     2.43 M    
##  8     7.68 M    
##  9    11.6  M    
## 10     2.93 M    
## #  with 90 more rows

# 4
M[1:50, ]

## # A tibble: 50 x 5
##       ID Species          Sex   BodyLength BodyMass
##    <dbl> <chr>            <chr>      <dbl>    <dbl>
##  1     1 Pardosa_ramulosa M           3.67    0.053
##  2     2 Pardosa_ramulosa M           4.96    0.168
##  3     3 Pardosa_ramulosa M           5.21    0.223
##  4     4 Pardosa_ramulosa M           5.18    0.106
##  5     5 Pardosa_ramulosa M           4.79    0.146
##  6     6 Pardosa_ramulosa M           6.04    0.22 
##  7     7 Pardosa_ramulosa M           3.97    0.098
##  8     8 Pardosa_ramulosa M           2.75    0.024
##  9     9 Pardosa_ramulosa M           4.22    0.071
## 10    10 Pardosa_ramulosa M           3.41    0.043
## #  with 40 more rows

M %>% slice(1:50)

## # A tibble: 50 x 5
##       ID Species          Sex   BodyLength BodyMass
##    <dbl> <chr>            <chr>      <dbl>    <dbl>
##  1     1 Pardosa_ramulosa M           3.67    0.053
##  2     2 Pardosa_ramulosa M           4.96    0.168
##  3     3 Pardosa_ramulosa M           5.21    0.223
##  4     4 Pardosa_ramulosa M           5.18    0.106
##  5     5 Pardosa_ramulosa M           4.79    0.146
##  6     6 Pardosa_ramulosa M           6.04    0.22 
##  7     7 Pardosa_ramulosa M           3.97    0.098
##  8     8 Pardosa_ramulosa M           2.75    0.024
##  9     9 Pardosa_ramulosa M           4.22    0.071
## 10    10 Pardosa_ramulosa M           3.41    0.043
## #  with 40 more rows
…
## `summarise()` ungrouping output (override with `.groups` argument)

## # A tibble: 2 x 2
##   Species          max_BodyMass
##   <chr>                   <dbl>
## 1 Nephila_clavipes     1283.   
## 2 Pardosa_ramulosa        0.876

# 6
M[M$Species == "Pardosa_ramulosa" & 
    M$Sex == "M" &
    (M$BodyLength < 4 | M$BodyLength > 6), ]

## # A tibble: 22 x 5
##       ID Species          Sex   BodyLength BodyMass
##    <dbl> <chr>            <chr>      <dbl>    <dbl>
##  1     1 Pardosa_ramulosa M           3.67    0.053
##  2     6 Pardosa_ramulosa M           6.04    0.22 
##  3     7 Pardosa_ramulosa M           3.97    0.098
##  4     8 Pardosa_ramulosa M           2.75    0.024
##  5    10 Pardosa_ramulosa M           3.41    0.043
##  6    11 Pardosa_ramulosa M           6.46    0.21 
##  7    18 Pardosa_ramulosa M           7.14    0.62 
##  8    19 Pardosa_ramulosa M           7.13    0.167
##  9    20 Pardosa_ramulosa M           3.84    0.052
## 10    22 Pardosa_ramulosa M           3.60    0.083
## #  with 12 more rows

M %>% filter(Species == "Pardosa_ramulosa" & Sex == "M") %>% 
  filter(BodyLength < 4 | BodyLength > 6)

## # A tibble: 22 x 5
##       ID Species          Sex   BodyLength BodyMass
##    <dbl> <chr>            <chr>      <dbl>    <dbl>
##  1     1 Pardosa_ramulosa M           3.67    0.053
##  2     6 Pardosa_ramulosa M           6.04    0.22 
##  3     7 Pardosa_ramulosa M           3.97    0.098
##  4     8 Pardosa_ramulosa M           2.75    0.024
##  5    10 Pardosa_ramulosa M           3.41    0.043
##  6    11 Pardosa_ramulosa M           6.46    0.21 
##  7    18 Pardosa_ramulosa M           7.14    0.62 
##  8    19 Pardosa_ramulosa M           7.13    0.167
##  9    20 Pardosa_ramulosa M           3.84    0.052
## 10    22 Pardosa_ramulosa M           3.60    0.083
## #  with 12 more rows
…
