Problem Set 03
…
Activity

What are the 3 rules that make data tidy?

Tidy data has 3 rules. 1) Each variable must have its own column. 2) Each observation must have its own row. 3) Each value must have its own cell.

To practice learning how to tidy data, we will will use a dataset from Hautier, Yann et al.(2020), Fast and furious: Early differences in growth rate drive short-term plant dominance and exclusion under eutrophication. In this paper, the authors are trying to understand the mechanisms by which diversity is lost under fertilization (i.e.eutrophication). One way they think some species have an advantage is by having a fast early growth rate. Lets tidy up this dataset so we can look at the trends in growth of different plant speices.

Next, read in the plant growth data "growthrate_data.csv", save it as an object gr, and look at the data. What are the dimensions of the resulting tibble?

# FIXME
gr <- read_csv("../data/growthrate_data.csv")
gr

## # A tibble: 25 x 13
##     plot species day_0 day_13 day_34 day_54 day_61 day_68 day_75 day_90 day_97
##    <dbl> <chr>   <dbl>  <dbl>  <dbl>  <dbl>  <dbl>  <dbl>  <dbl>  <dbl>  <dbl>
##  1     8 H       0.898  0.872  0.67    1.10   1.19   1.5    2.35   4.89   6.26
##  2    12 Al      1.04  NA      1.85    1.05   3.67   2.63   2      6.23   7.34
##  3    15 F       0.464  0.403  0.361   0.41   0.37   0.55   0.71   1.61   5.6 
##  4    21 H       0.844  1.24   0.773   0.92   1.62   1.79   2.05   2.63   6.94
##  5    26 Al      0.957  0.987  0.702   1.62  NA      3.9    7.69   8.98   8.93
##  6    30 Al      0.703  0.709  1.62    2      1.55   2.56   4.65   4.34   6.6 
##  7    32 Al      0.89   0.624  1.42    0.46   1.29   1.68   2.14   4.21   4.15
##  8    36 Ar      0.376  0.943  1.04    0.42   1.14   1.37   1.54   3.24   5.15
##  9    37 F       0.433  0.523  0.322   0.8    0.61   0.77   0.38   1.71   3.78
## 10    41 An      0.935  0.914  1.04    1.96   1.18   0.89   1.22   3.23   3.39
## #  with 15 more rows, and 2 more variables: day_103 <dbl>, day_112 <dbl>
This appears to be how the scientists entered their data, with columns for species, plot, and then multiple columns for the biomass at the various days they collected their measurements. Unfortunately, this data is not tidy. Why not?

Observaitons are in rows, but the variable biomass is found in most of the columns. This should have a single column, with date as another column.

To make this data go from wide to long format, you need to use the function pivot_longer(). Use this to create a new dataset called gr_long that is tidy, with biomass as the value that runs for a full column.

# FIXME
gr_long <- gr %>%
  pivot_longer(cols = c("day_0","day_13","day_34","day_54","day_61","day_68",
                        "day_75","day_90","day_97", "day_103", "day_112"), 
               names_to ="day", 
               values_to ="biomass")
gr_long

## # A tibble: 275 x 4
##     plot species day     biomass
##    <dbl> <chr>   <chr>     <dbl>
##  1     8 H       day_0     0.898
##  2     8 H       day_13    0.872
##  3     8 H       day_34    0.67 
##  4     8 H       day_54    1.10 
##  5     8 H       day_61    1.19 
##  6     8 H       day_68    1.5  
##  7     8 H       day_75    2.35 
##  8     8 H       day_90    4.89 
##  9     8 H       day_97    6.26 
## 10     8 H       day_103   8.89 
## #  with 265 more rows

#PRO TIP:  You can also make your life easier by just specifying the column numbers!
gr_long2 <- gr %>%
  pivot_longer(cols = c(3:13), 
               names_to ="day", 
               values_to ="biomass")
gr_long2

## # A tibble: 275 x 4
##     plot species day     biomass
##    <dbl> <chr>   <chr>     <dbl>
##  1     8 H       day_0     0.898
##  2     8 H       day_13    0.872
##  3     8 H       day_34    0.67 
##  4     8 H       day_54    1.10 
##  5     8 H       day_61    1.19 
##  6     8 H       day_68    1.5  
##  7     8 H       day_75    2.35 
##  8     8 H       day_90    4.89 
##  9     8 H       day_97    6.26 
## 10     8 H       day_103   8.89 
## #  with 265 more rows
…
The separate() function allows you to split columns of your data into two.

Activity

You can see our day column is a <chr>. To be able to plot plant biomass growth through time, in the chunk below, pipe gr_long to separate() to split this column into two, making sure the column of integers for the day number is called days.

# FIXME
gr_long <- gr_long %>%
  separate(day, into = c("text", "days"), convert = TRUE)

#you can also remove this extraneous column using this the [] and - the column of interest
gr_long <- gr_long[,-3]
gr_long

## # A tibble: 275 x 4
##     plot species  days biomass
##    <dbl> <chr>   <int>   <dbl>
##  1     8 H           0   0.898
##  2     8 H          13   0.872
##  3     8 H          34   0.67 
##  4     8 H          54   1.10 
##  5     8 H          61   1.19 
##  6     8 H          68   1.5  
##  7     8 H          75   2.35 
##  8     8 H          90   4.89 
##  9     8 H          97   6.26 
## 10     8 H         103   8.89 
## #  with 265 more rows
…
Yes, the fit looks much more appropriate now.

Rainout Experiment

In this next part, we will be practicing data manipulation and exploration. We will work with two files that contain data related to a rainout experiment. Changes in precipitation are commonly predicted with climate change, so rainout experiments are used to examine how different proposed future precipitation conditions (i.e.in our case high or low rain reduction) influences plant species composition and biomass.

The first dataset ("rainout_plots.csv") describes plot-level data. This experiment contains 8 subplots per plot, thus this plot-level data contains plot and subplot identities, as well as only a single value per subplot for each of its variables (e.g.light availability, biomass) as these are collected at the subplot level. We will also work with a dataset that contains information about species within each subplot called "rainout_plantspecies_presence.csv". There will be multiple observations per subplot in this dataset because the unique species in each subplot was recorded.

Lets start with the plant compositon data. Read in "rainout_plantspecies_presence.csv" and save it to an object called comp.

# FIXME
comp <- read_csv("../data/rainout_plantspecies_presence.csv")
comp

## # A tibble: 409 x 3
##    plot_no subplot species
##      <dbl>   <dbl> <chr>  
##  1       1       1 poapra 
##  2       1       1 cortri 
##  3       1       1 andger 
##  4       1       2 poapra 
##  5       1       2 andger 
##  6       1       2 solcan 
##  7       1       2 achmil 
##  8       1       2 cortri 
##  9       1       2 pendig 
## 10       1       3 andger 
## #  with 399 more rows

Summarizing

One very important tool you will learn from the tidyverse is how to summarize your data. We will use the summarize() function quite a bit in this course, so lets get some practice. One thing we might want to know about is how many unique species are in each subplot within each plot. That way we can start to make predictions about how rain exclusion influences species richness. Using group_by() and summarize(), calculate the number of unique species per subplot within each plot in comp. Save the new object as richness, and also name the new variable richness. Hint (length(unique(<variable-of-interest>))) will give you the number of rows that are unique within the groups you have set, which equates to the number of unique species, or richness, per subplot.

Activity

# FIXME

richness <- comp %>%
  group_by(plot_no, subplot) %>%
  summarize(richness = length(unique(species)))
richness

## # A tibble: 96 x 3
## # Groups:   plot_no [12]
##    plot_no subplot richness
##      <dbl>   <dbl>    <int>
##  1       1       1        3
##  2       1       2        6
##  3       1       3        4
##  4       1       4        5
##  5       1       5        5
##  6       1       6        7
##  7       1       7        7
##  8       1       8        7
##  9       2       1        7
## 10       2       2        4
## #  with 86 more rows

Joining

One of the most common things you will do in your data cleaning and exploration stage is join datasets together. This will become especially important if you store your data as separate, smaller files. In our case, we need to join our richness object with our plot-level information so we can examine how richness changes with our two rainout treatments (e.g.high rain removal and low rain removal).

Activity

Read in the plot-level data , and save it to an object called plot.

# FIXME
plot <- read_csv("../data/rainout_plots.csv")
plot

## # A tibble: 96 x 5
##    plot_no subplot rain_removal light_at_groundlevel biomass
##      <dbl>   <dbl> <chr>                       <dbl>   <dbl>
##  1       1       1 high                           90     531
##  2       1       2 high                           92     530
##  3       1       3 high                          102     623
##  4       1       4 high                           57     574
##  5       1       5 high                          129      75
##  6       1       6 high                           82     616
##  7       1       7 high                          151     526
##  8       1       8 high                           54     341
##  9       2       1 high                           91     426
## 10       2       2 high                           96      94
## #  with 86 more rows

As we discussed in lecture, there are many different functions for joining in the tidyverse. We will focus on left_join() here because you can use this for most joining you need to do, and switch the order of the datasets you are joining depending on your need.

Join your plot level data to your species richness data using left_join(). You can save this as the same object that the richness was saved as previously, given this is the data you are building upon. Try doing this in two different ways, one where you specify the columns you want to join by, and one where you dont and let left_join() pick the columns that automatically match. This should help you see the power of these joining functions.

# FIXME
richness <- richness %>%
  left_join(plot, by = c("plot_no", "subplot"))
richness

## # A tibble: 96 x 6
## # Groups:   plot_no [12]
##    plot_no subplot richness rain_removal light_at_groundlevel biomass
##      <dbl>   <dbl>    <int> <chr>                       <dbl>   <dbl>
##  1       1       1        3 high                           90     531
##  2       1       2        6 high                           92     530
##  3       1       3        4 high                          102     623
##  4       1       4        5 high                           57     574
##  5       1       5        5 high                          129      75
##  6       1       6        7 high                           82     616
##  7       1       7        7 high                          151     526
##  8       1       8        7 high                           54     341
##  9       2       1        7 high                           91     426
## 10       2       2        4 high                           96      94
## #  with 86 more rows

#Also
richness %>%
  left_join(plot)

## # A tibble: 96 x 6
## # Groups:   plot_no [12]
##    plot_no subplot richness rain_removal light_at_groundlevel biomass
##      <dbl>   <dbl>    <int> <chr>                       <dbl>   <dbl>
##  1       1       1        3 high                           90     531
##  2       1       2        6 high                           92     530
##  3       1       3        4 high                          102     623
##  4       1       4        5 high                           57     574
##  5       1       5        5 high                          129      75
##  6       1       6        7 high                           82     616
##  7       1       7        7 high                          151     526
##  8       1       8        7 high                           54     341
##  9       2       1        7 high                           91     426
## 10       2       2        4 high                           96      94
## #  with 86 more rows
…
