Problem Set 09
…
left_join(): return all rows from x, and all columns from x and y. Rows in x with no match in y will have NA values in the new columns. If there are multiple matches between x and y, all combinations of the matches are returned.

full_join(): return all rows and all columns from both x and y. Where there are not matching values, returns NA for the one missing.

left_join() the temperature data and the site data and assign to a new object. This will add the columns of one to the other, matching on Site. You should end up with a 3,744 x 8 tibble.

Site_Data <- read_excel("../data/Streams.xlsx", "SiteData")
M <- left_join(Temp_Data, Site_Data)

## Joining, by = "Site"

M %>% group_by(Site, Stream_Name) %>% tally()

## # A tibble: 78 x 3
## # Groups:   Site [78]
##    Site    Stream_Name     n
##    <chr>   <chr>       <int>
##  1 BR10UCP Big Run        48
##  2 BR11LCP Big Run        48
##  3 BR1MP   Big Run        48
##  4 BR2MP   Big Run        48
##  5 BR3MP   Big Run        48
##  6 BR4UCP  Big Run        48
##  7 BR5LCP  Big Run        48
##  8 BR6UCP  Big Run        48
##  9 BR7MP   Big Run        48
## 10 BR8UCP  Big Run        48
## #  with 68 more rows
…
