Problem Set 03
…
Activity

What are the 3 rules that make data tidy?

Tidy data has 3 rules. 1) Each variable must have its own column. 2) Each observation must have its own row. 3) Each value must have its own cell.

To practice learning how to tidy data, we will will use a dataset from Hautier, Yann et al.(2020), Fast and furious: Early differences in growth rate drive short-term plant dominance and exclusion under eutrophication. In this paper, the authors are trying to understand the mechanisms by which diversity is lost under fertilization (i.e.eutrophication). One way they think some species have an advantage is by having a fast early growth rate. Lets tidy up this dataset so we can look at the trends in growth of different plant speices.

Next, read in the plant growth data "growthrate_data.csv", save it as an object gr, and look at the data. What are the dimensions of the resulting tibble?

# FIXME
gr <- read_csv("../data/growthrate_data.csv")
gr

## # A tibble: 25 x 13
##     plot species day_0 day_13 day_34 day_54 day_61 day_68 day_75 day_90 day_97
##    <dbl> <chr>   <dbl>  <dbl>  <dbl>  <dbl>  <dbl>  <dbl>  <dbl>  <dbl>  <dbl>
##  1     8 H       0.898  0.872  0.67    1.10   1.19   1.5    2.35   4.89   6.26
##  2    12 Al      1.04  NA      1.85    1.05   3.67   2.63   2      6.23   7.34
##  3    15 F       0.464  0.403  0.361   0.41   0.37   0.55   0.71   1.61   5.6 
##  4    21 H       0.844  1.24   0.773   0.92   1.62   1.79   2.05   2.63   6.94
##  5    26 Al      0.957  0.987  0.702   1.62  NA      3.9    7.69   8.98   8.93
##  6    30 Al      0.703  0.709  1.62    2      1.55   2.56   4.65   4.34   6.6 
##  7    32 Al      0.89   0.624  1.42    0.46   1.29   1.68   2.14   4.21   4.15
##  8    36 Ar      0.376  0.943  1.04    0.42   1.14   1.37   1.54   3.24   5.15
##  9    37 F       0.433  0.523  0.322   0.8    0.61   0.77   0.38   1.71   3.78
## 10    41 An      0.935  0.914  1.04    1.96   1.18   0.89   1.22   3.23   3.39
## #  with 15 more rows, and 2 more variables: day_103 <dbl>, day_112 <dbl>
This appears to be how the scientists entered their data, with columns for species, plot, and then multiple columns for the biomass at the various days they collected their measurements. Unfortunately, this data is not tidy. Why not?

Observaitons are in rows, but the variable biomass is found in most of the columns. This should have a single column, with date as another column.

To make this data go from wide to long format, you need to use the function pivot_longer(). Use this to create a new dataset called gr_long that is tidy, with biomass as the value that runs for a full column.

# FIXME
gr_long <- gr %>%
              pivot_longer(cols = c("day_0","day_13","day_34","day_54","day_61","day_68",
                                    "day_75","day_90","day_97", "day_103", "day_112"), 
                           names_to ="day", 
                           values_to ="biomass")
gr_long

## # A tibble: 275 x 4
##     plot species day     biomass
##    <dbl> <chr>   <chr>     <dbl>
##  1     8 H       day_0     0.898
##  2     8 H       day_13    0.872
##  3     8 H       day_34    0.67 
##  4     8 H       day_54    1.10 
##  5     8 H       day_61    1.19 
##  6     8 H       day_68    1.5  
##  7     8 H       day_75    2.35 
##  8     8 H       day_90    4.89 
##  9     8 H       day_97    6.26 
## 10     8 H       day_103   8.89 
## #  with 265 more rows

#PRO TIP:  You can also make your life easier by just specifying the column numbers!
gr_long2 <- gr %>%
              pivot_longer(cols = c(3:13), 
                           names_to ="day", 
                           values_to ="biomass")
gr_long2

## # A tibble: 275 x 4
##     plot species day     biomass
##    <dbl> <chr>   <chr>     <dbl>
##  1     8 H       day_0     0.898
##  2     8 H       day_13    0.872
##  3     8 H       day_34    0.67 
##  4     8 H       day_54    1.10 
##  5     8 H       day_61    1.19 
##  6     8 H       day_68    1.5  
##  7     8 H       day_75    2.35 
##  8     8 H       day_90    4.89 
##  9     8 H       day_97    6.26 
## 10     8 H       day_103   8.89 
## #  with 265 more rows
…
The separate() function allows you to split columns of your data into two.

Activity

You can see our day column is a <chr>. To be able to plot plant biomass growth through time, in the chunk below, pipe gr_long to separate() to split this column into two, making sure the column of integers for the day number is called days.

# FIXME
gr_long <- gr_long %>%
                separate(day, into = c("text", "days"), convert = TRUE)

#you can also remove this extraneous column using this the [] and - the column of interest
gr_long <- gr_long[,-3]
gr_long

## # A tibble: 275 x 4
##     plot species  days biomass
##    <dbl> <chr>   <int>   <dbl>
##  1     8 H           0   0.898
##  2     8 H          13   0.872
##  3     8 H          34   0.67 
##  4     8 H          54   1.10 
##  5     8 H          61   1.19 
##  6     8 H          68   1.5  
##  7     8 H          75   2.35 
##  8     8 H          90   4.89 
##  9     8 H          97   6.26 
## 10     8 H         103   8.89 
## #  with 265 more rows
…
