Problem Set 10
…
## Rows: 3,744
## Columns: 8
## $ Site             <chr> "BR10UCP", "BR10UCP", "BR10UCP", "BR10UCP", "BR10UCP"
## $ Date             <dttm> 2012-06-23, 2012-06-24, 2012-06-25, 2012-06-26, 2012
## $ AirTemp_observed <dbl> NA, NA, NA, NA, NA, NA, NA, NA, NA, NA, NA, NA, NA, N
## $ AirTempPredicted <dbl> 20.71827, 21.17184, 20.64502, 17.05554, 18.97586, 21.
## $ WaterTemp        <dbl> 18.93958, 18.70667, 19.23750, 17.65875, 17.45375, 18.
## $ Stream_Name      <chr> "Big Run", "Big Run", "Big Run", "Big Run", "Big Run"
## $ Longitude        <dbl> -78.6967, -78.6967, -78.6967, -78.6967, -78.6967, -78
## $ Latitude         <dbl> 38.28736, 38.28736, 38.28736, 38.28736, 38.28736, 38.

M %>% count(Site, Stream_Name)

## # A tibble: 78 x 3
##    Site    Stream_Name     n
##    <chr>   <chr>       <int>
##  1 BR10UCP Big Run        48
##  2 BR11LCP Big Run        48
##  3 BR1MP   Big Run        48
##  4 BR2MP   Big Run        48
##  5 BR3MP   Big Run        48
##  6 BR4UCP  Big Run        48
##  7 BR5LCP  Big Run        48
##  8 BR6UCP  Big Run        48
##  9 BR7MP   Big Run        48
## 10 BR8UCP  Big Run        48
## #  with 68 more rows
…
