Problem Set 11
…
for (tt in 1:length(thresholds)) {
  th <- thresholds[tt]
  pos.counts <- tibble(
    'counts' = apply(allP, 2, function(x) sum(x < th)))
  output[tt,'FP'] <- mean(pos.counts$counts) / 100
  output[tt,'FWER'] <- sum(pos.counts >= 1) / 1000
  output[tt,'FDR'] <- mean(pos.counts$counts) / sum(obsP$P < th)
}

output

## # A tibble: 200 x 4
##    threshold      FP  FWER     FDR
##        <dbl>   <dbl> <dbl>   <dbl>
##  1  0.0005   0.00039 0.038 0.00325
##  2  0.000749 0.00056 0.055 0.00467
##  3  0.000997 0.0008  0.078 0.00667
##  4  0.00125  0.00105 0.101 0.00875
##  5  0.00149  0.00124 0.119 0.0103 
##  6  0.00174  0.00148 0.138 0.0114 
##  7  0.00199  0.00173 0.156 0.0133 
##  8  0.00224  0.00199 0.173 0.0153 
##  9  0.00249  0.00219 0.185 0.0168 
## 10  0.00274  0.00237 0.198 0.0169 
## #  with 190 more rows
…
